src/simulation/qsim/KronosX.msim.vcd
$comment
	File created using the following command:
		vcd file KronosX.msim.vcd -direction
$end
$date
	Mon May 12 17:51:03 2014
$end
$version
	ModelSim Version 10.1d
$end
$timescale
	1ps
$end
$scope module KronosX_vlg_vec_tst $end
$var reg 1 ! pin_name1 $end
$var reg 1 " pin_name2 $end
$var reg 1 # pin_name3 $end
$var reg 1 $ pin_name4 $end
$var wire 1 % pin_name5 $end
$var wire 1 & sampler $end
$scope module i1 $end
$var wire 1 ' gnd $end
$var wire 1 ( vcc $end
$var wire 1 ) unknown $end
$var tri1 1 * devclrn $end
$var tri1 1 + devpor $end
$var tri1 1 , devoe $end
$var wire 1 - pin_name5~output_o $end
$var wire 1 . pin_name2~input_o $end
$var wire 1 / pin_name3~input_o $end
$var wire 1 0 pin_name4~input_o $end
$var wire 1 1 pin_name1~input_o $end
$var wire 1 2 inst3~combout $end
$upscope $end
$upscope $end
$enddefinitions $end
#0
$dumpvars
1!
0"
1#
0$
0%
x&
0'
1(
x)
1*
1+
1,
0-
0.
1/
00
11
02
$end
#200000
1$
10
0&
12
1-
1%
#220000
1"
1.
1&
02
0-
0%
#280000
0!
01
0&
12
1-
1%
#340000
0#
0/
1&
02
0-
0%
#380000
1!
11
0&
12
1-
1%
#400000
0$
1#
00
1/
1&
#500000
0"
0.
0&
02
0-
0%
#740000
1$
10
1&
12
1-
1%
#920000
0$
00
0&
02
0-
0%
