src/simulation/qsim/KronosX.msim.vcd
$comment
	File created using the following command:
		vcd file KronosX.msim.vcd -direction
$end
$date
	Mon May 19 00:05:24 2014
$end
$version
	ModelSim Version 10.1d
$end
$timescale
	1ps
$end
$scope module Shift_vlg_vec_tst $end
$var reg 2 ! A [1:0] $end
$var wire 1 " Z [3] $end
$var wire 1 # Z [2] $end
$var wire 1 $ Z [1] $end
$var wire 1 % Z [0] $end
$var wire 1 & sampler $end
$scope module i1 $end
$var wire 1 ' gnd $end
$var wire 1 ( vcc $end
$var wire 1 ) unknown $end
$var tri1 1 * devclrn $end
$var tri1 1 + devpor $end
$var tri1 1 , devoe $end
$var wire 1 - A~combout [1] $end
$var wire 1 . A~combout [0] $end
$upscope $end
$upscope $end
$enddefinitions $end
#0
$dumpvars
b0 !
0%
0$
x#
x"
x&
0'
1(
x)
1*
1+
1,
0.
0-
$end
#3823
0#
#3880
0"
#60000
b1 !
0&
#60979
1.
#64802
1#
#140000
b0 !
1&
#140979
0.
#144802
0#
#170000
b10 !
0&
#170979
1-
#174859
1"
#240000
b0 !
1&
#240979
0-
#244859
0"
#270000
b1 !
b11 !
0&
#270979
1.
1-
#274802
1#
#274859
1"
#440000
b10 !
b0 !
1&
#440979
0.
0-
#444802
0#
#444859
0"
